﻿@addTagHelper *, Microsoft.AspNetCore.Mvc.TagHelpers
@addTagHelper *, TN.UI
@{
    ViewData["Title"] = "Quản lý {{TableName}}";
    Layout = "~/Views/Shared/_Admin.cshtml";
}
<form gr-form-index>
    <div class="block-header">
        <h2><i class="material-icons">person</i> QUẢN LÝ TÀI {{TableName}} <span class="label label-danger label-t">Danh sách</span></h2>
        <ol class="breadcrumb breadcrumb-t">
            <li>
                <a href="/Admin">
                    <i class="material-icons">home</i> Trang điều khiển
                </a>
            </li>
            <li class="active">
                Danh sách {{TableName}}
            </li>
        </ol>
    </div>
    <div class="row">
        <div class="col-md-8">
            <div class="input-group">
                <div class="input-group-addon input-group-addon-t">
                    <span class="text-addonsearch">Tìm kiếm</span>
                </div>
                <div class="divcansearch">
                    <input gr-input-search type="text" name="key" class="form-control inputsearch keywidth" placeholder="Tìm kiếm theo từ tên tài khoản, số điện thoại, tên hiển thị...">
                    <div gr-search-form-ex class="searchExtensionForm">
                        <a gr-search-close-ex title="Đóng" class="btnCloseSearchEx" onclick="closeSearchExtension()"><span aria-hidden="true">×</span></a>
                        <div class="row">
                            <div class="col-md-12">
                               
                            </div>
                        </div>
                    </div>
                </div>
                <span class="input-group-addon btn-group-addon">
                    <button onclick="getDataGrid(1)" type="button" class="btn bg-indigo waves-effect btn-search"><i class="material-icons">search</i></button>
                </span>
                <a gr-search-ex class="searchExtension" title="Tìm kiếm nâng cao"><i class="material-icons">keyboard_arrow_down</i></a>
            </div>
        </div>
        <div class="col-md-4">
            <div class="form-group">
                <a form-show-form data-checked data-role-xx1 data-modal-name="#myModal" asp-action="Create" class="btn btn-icon btn-primary waves-effect"><i class="material-icons">person_add</i> <span>Thêm {{TableName}}</span></a>
                <a asp-route-returnurl="@Context.Request.Path@Context.Request.QueryString" data-checked data-role-xx1 asp-action="Create" class="btn btn-icon btn-primary waves-effect"><i class="material-icons">person_add</i> <span>Thêm {{TableName}}</span></a>
            </div>
        </div>
    </div>
    <div class="row clearfix">
        <div class="col-md-12">
            <div gr-loading class="card card-t card-loading">
                <div class="header bg-indigo">
                    <h4 gr-show-num-row class="num-t m-l-20">
                        Đang tải...
                    </h4>
                    <ul class="header-dropdown m-r--5 header-dropdown-t">
                        <li class="dropdown">
                            <a href="javascript:void(0);" class="dropdown-toggle" data-toggle="dropdown" role="button" aria-haspopup="true" aria-expanded="false">
                                <i class="material-icons">apps</i>
                            </a>
                            <ul class="dropdown-menu pull-left">
                                <li><a href="javascript:void(0);">Đóng lại</a></li>
                            </ul>
                        </li>
                    </ul>
                    <div class="controlOrderBy">
                        <div style="width:110px;" class="itemorder selectOrder">
                            <select gr-input-search onchange="getDataGrid(1)" data-header="Loại sắp xếp" name="ordertype" class="form-control input-sm form-control-t show-tick">
                                <option data-icon="glyphicon-sort-by-attributes" value="asc">Tăng dần</option>
                                <option data-icon="glyphicon-sort-by-attributes-alt" value="desc">Giảm dần</option>
                            </select>
                        </div>
                        <div style="width:180px;" class="itemorder selectOrder">
                            <select gr-input-search onchange="getDataGrid(1)" data-header="Xắp xếp theo" name="orderby" class="form-control input-sm form-control-t show-tick">
                                <option data-icon="glyphicon glyphicon-sort" value="name">Xếp theo tên hiển thị</option>
                                <option data-icon="glyphicon glyphicon-sort" value="createddate">Xếp theo thời gian tạo</option>
                            </select>
                        </div>
                    </div>
                </div>
                <div class="body body-t">
                    <div class="table-responsive">
                        <table class="table table-striped table-bordered table-hover table-t">
                            <thead>
                                <tr>
                                    <th class="trcheck text-center"><input gr-input-check-all onchange="onCheckAll(this,'.trcheck')" type="checkbox" class="filled-in chk-col-indigo" /><label for="checkAll"></label></th>
                                    {{TableThead}}
                                    <th data-checked data-role-xx2 style="width:100px;">Hành động</th>
                                </tr>
                            </thead>
                            <tbody gr-bind-data></tbody>
                        </table>
                    </div>
                    <div class="pl-20 pr-20">
                        <div class="row">
                            <div class="col-md-2">
                                <div class="input-group m-b-0">
                                    <span class="input-group-addon">
                                        Bản ghi/trang
                                    </span>
                                    <div class="form-line form-line-t form-line-pagesize">
                                        <select name="limit" onchange="getDataGrid(1)" class="form-control show-tick" gr-input-search>
                                            <option selected value="10">10</option>
                                            <option value="20">20</option>
                                            <option value="30">30</option>
                                            <option value="40">40</option>
                                            <option value="50">50</option>
                                        </select>
                                    </div>
                                </div>
                            </div>
                            <div class="col-md-10">
                                <nav gr-bind-pagination class="pg-t">
                                </nav>
                            </div>
                        </div>
                    </div>
                </div>
            </div>
        </div>
    </div>
</form>
@section Scripts {
    @{ await Html.RenderPartialAsync("_ValidationScriptsPartial"); }
<script>
        var _page = 1;
        $(function () {
            initSearchExtensionAdvance();
            getDataGrid(1, true);
        });
        function getDataGrid(page, first = false) {
            _page = page;
            dataGridViewAdvance(first,_page,{ url: '@Url.Action("Index")' });
        }
        function reGetDataGrid() {
            getDataGrid(_page, false);
        }
</script>
}
